%YAML 1.1
%TAG !u! tag:unity3d.com,2011:
--- !u!114 &11400000
MonoBehaviour:
  m_ObjectHideFlags: 0
  m_CorrespondingSourceObject: {fileID: 0}
  m_PrefabInstance: {fileID: 0}
  m_PrefabAsset: {fileID: 0}
  m_GameObject: {fileID: 0}
  m_Enabled: 1
  m_EditorHideFlags: 0
  m_Script: {fileID: 11500000, guid: 9898f0ebced24e59acc923ba70d5e8e2, type: 3}
  m_Name: support_lv3
  m_EditorClassIdentifier: 
  enumValue: {fileID: 11400000, guid: c642528bc53e50145a396540a3004079, type: 2}
  towerPrefab: {fileID: 3677258560958360516, guid: 9ba3c07dba6a7e7498a8ec3943f19b36, type: 3}
  displayName: support_lv3
  description:
  - Line 1
  - Line 2
  - Line 3
  forSell: 0
  price: 160
  upgradeTowers:
  - {fileID: 11400000, guid: fee9d624a9c836242aba3b7dc11afec6, type: 2}
  - {fileID: 11400000, guid: 0fe44d7cade54e14b93cc919109e4c76, type: 2}
  - {fileID: 11400000, guid: b7292bd5d6c2b5c4b9b614f91cd33fb2, type: 2}
