%YAML 1.1
%TAG !u! tag:unity3d.com,2011:
--- !u!114 &11400000
MonoBehaviour:
  m_ObjectHideFlags: 0
  m_CorrespondingSourceObject: {fileID: 0}
  m_PrefabInstance: {fileID: 0}
  m_PrefabAsset: {fileID: 0}
  m_GameObject: {fileID: 0}
  m_Enabled: 1
  m_EditorHideFlags: 0
  m_Script: {fileID: 11500000, guid: 9898f0ebced24e59acc923ba70d5e8e2, type: 3}
  m_Name: engineer_lv3
  m_EditorClassIdentifier: 
  enumValue: {fileID: 11400000, guid: d889d86f053bdfc48a54ff9f430495b1, type: 2}
  towerPrefab: {fileID: 3677258560958360516, guid: fdf576b57c025f24dabea71c83f7c1df, type: 3}
  displayName: engineer_lv3
  description:
  - Line 1
  - Line 2
  - Line 3
  forSell: 0
  price: 320
  upgradeTowers:
  - {fileID: 11400000, guid: 554852b4e86d97b4492555735f9fba04, type: 2}
  - {fileID: 11400000, guid: a5562de5451dc8548abd3c6f30d16792, type: 2}
  - {fileID: 11400000, guid: ec4c35d3ea22b6342904990dab069d6f, type: 2}
