%YAML 1.1
%TAG !u! tag:unity3d.com,2011:
--- !u!1 &1072530297456584276
GameObject:
  m_ObjectHideFlags: 0
  m_CorrespondingSourceObject: {fileID: 0}
  m_PrefabInstance: {fileID: 0}
  m_PrefabAsset: {fileID: 0}
  serializedVersion: 6
  m_Component:
  - component: {fileID: 1793633369896737470}
  - component: {fileID: 6926570322177116564}
  m_Layer: 0
  m_Name: ProjectileInstance
  m_TagString: Untagged
  m_Icon: {fileID: 0}
  m_NavMeshLayer: 0
  m_StaticEditorFlags: 0
  m_IsActive: 1
--- !u!4 &1793633369896737470
Transform:
  m_ObjectHideFlags: 0
  m_CorrespondingSourceObject: {fileID: 0}
  m_PrefabInstance: {fileID: 0}
  m_PrefabAsset: {fileID: 0}
  m_GameObject: {fileID: 1072530297456584276}
  m_LocalRotation: {x: 0, y: 0, z: 0, w: 1}
  m_LocalPosition: {x: 0, y: 0, z: 0}
  m_LocalScale: {x: 1, y: 1, z: 1}
  m_Children: []
  m_Father: {fileID: 0}
  m_RootOrder: 0
  m_LocalEulerAnglesHint: {x: 0, y: 0, z: 0}
--- !u!114 &6926570322177116564
MonoBehaviour:
  m_ObjectHideFlags: 0
  m_CorrespondingSourceObject: {fileID: 0}
  m_PrefabInstance: {fileID: 0}
  m_PrefabAsset: {fileID: 0}
  m_GameObject: {fileID: 1072530297456584276}
  m_Enabled: 1
  m_EditorHideFlags: 0
  m_Script: {fileID: 11500000, guid: 5b30aa6f03634e4fbb76625eeeafacb7, type: 3}
  m_Name: 
  m_EditorClassIdentifier: 
  projectileData:
  - projectileType: 0
    projectilePrefab: {fileID: 5202578518039290219, guid: c573cb55a78e8774c899774436e0a019, type: 3}
  - projectileType: 1
    projectilePrefab: {fileID: 5202578518039290219, guid: 75e37fa330bb727428fd15a2ca2e7de4, type: 3}
  - projectileType: 2
    projectilePrefab: {fileID: 150244773268003297, guid: 9a0edcc6b21aeed4ea73a6b6c1f5cbd9, type: 3}
  - projectileType: 3
    projectilePrefab: {fileID: 7696126745479398886, guid: ff8cfab7567529f4c96b691d670a81fd, type: 3}
