%YAML 1.1
%TAG !u! tag:unity3d.com,2011:
--- !u!114 &11400000
MonoBehaviour:
  m_ObjectHideFlags: 0
  m_CorrespondingSourceObject: {fileID: 0}
  m_PrefabInstance: {fileID: 0}
  m_PrefabAsset: {fileID: 0}
  m_GameObject: {fileID: 0}
  m_Enabled: 0
  m_EditorHideFlags: 0
  m_Script: {fileID: 11500000, guid: 435b17d59f6c4987be4c49e86c47263a, type: 3}
  m_Name: Default Item Icon Pack
  m_EditorClassIdentifier: 
  defaultIcon: {fileID: 10913, guid: 0000000000000000f000000000000000, type: 0}
  defaultMaterial: {fileID: 11400000, guid: 579e535d6c04b5b449fbb704ba21fd29, type: 2}
  itemIconData:
  - enumValue: {fileID: 11400000, guid: 579e535d6c04b5b449fbb704ba21fd29, type: 2}
    icon: {fileID: 21300000, guid: 5009518300002684685cf84e5404eab0, type: 3}
  - enumValue: {fileID: 11400000, guid: 54c0479a70805bf4aada1ca011edbecb, type: 2}
    icon: {fileID: 5508725064705088119, guid: 580e1bc0cf03c5d48abf93567df5cbe6, type: 3}
  - enumValue: {fileID: 11400000, guid: 846a53d4c15e1bf4d8456a15c627a4b1, type: 2}
    icon: {fileID: 21300000, guid: 9d170d9b934136f47aeb6052af6ee626, type: 3}
  - enumValue: {fileID: 11400000, guid: bbad4bd713c13b64388184adbbd3cd1b, type: 2}
    icon: {fileID: 21300000, guid: 6771ca3b53b390b4eb01b9b94f127fe6, type: 3}
  - enumValue: {fileID: 11400000, guid: 4ab7179392f9be042b5652690f3bcdca, type: 2}
    icon: {fileID: 21300000, guid: 2da0e6bf121905948912e97d93b72922, type: 3}
  - enumValue: {fileID: 11400000, guid: 0a87b04940ba8674ebb13a7604315db5, type: 2}
    icon: {fileID: 21300000, guid: 0b6735fef6ef96740a0405066cbcfc76, type: 3}
  - enumValue: {fileID: 11400000, guid: e0410b2e1d02a1e498989dbe6e3876fb, type: 2}
    icon: {fileID: 21300000, guid: 10b3260557b06b0439181eadb2e7cffd, type: 3}
  - enumValue: {fileID: 11400000, guid: 6601773d7643d8e449f7fa81bcab4000, type: 2}
    icon: {fileID: 21300000, guid: 8e3dda82bc63ae946bbdf04190467ef0, type: 3}
  - enumValue: {fileID: 11400000, guid: 53cacf0b78b8f454a942d8a90434156a, type: 2}
    icon: {fileID: 21300000, guid: 0b9af73f990736543a49576bbe354bfe, type: 3}
  - enumValue: {fileID: 11400000, guid: 739c38162ccb83742b41e3c625c0157d, type: 2}
    icon: {fileID: 21300000, guid: 91df38ca2a7e8b346a1d2dafbda6642b, type: 3}
  - enumValue: {fileID: 11400000, guid: 4b5674ca0cf8b694cb7f859702cc03bd, type: 2}
    icon: {fileID: 21300000, guid: 91df38ca2a7e8b346a1d2dafbda6642b, type: 3}
  - enumValue: {fileID: 11400000, guid: 2a811b1bae239bc46b616db192f9ac60, type: 2}
    icon: {fileID: 21300000, guid: 91df38ca2a7e8b346a1d2dafbda6642b, type: 3}
  - enumValue: {fileID: 11400000, guid: 71964704ed0bb60478918d700462b86a, type: 2}
    icon: {fileID: 21300000, guid: 91df38ca2a7e8b346a1d2dafbda6642b, type: 3}
  - enumValue: {fileID: 11400000, guid: e88c61c32bbd8d540850d7ad596c614f, type: 2}
    icon: {fileID: 21300000, guid: 91df38ca2a7e8b346a1d2dafbda6642b, type: 3}
  - enumValue: {fileID: 11400000, guid: c63e463d1cf55564eadf083e4cc6ab98, type: 2}
    icon: {fileID: 21300000, guid: 6ec9400f9be18a24c836905fbbfd7ece, type: 3}
  - enumValue: {fileID: 11400000, guid: 3efce14157432774bbb6946e41ec2d74, type: 2}
    icon: {fileID: 21300000, guid: 6ec9400f9be18a24c836905fbbfd7ece, type: 3}
  - enumValue: {fileID: 11400000, guid: d889d86f053bdfc48a54ff9f430495b1, type: 2}
    icon: {fileID: 21300000, guid: 6ec9400f9be18a24c836905fbbfd7ece, type: 3}
  - enumValue: {fileID: 11400000, guid: 69d37e14af32c7c47b1be47ed28d12b2, type: 2}
    icon: {fileID: 21300000, guid: 6ec9400f9be18a24c836905fbbfd7ece, type: 3}
  - enumValue: {fileID: 11400000, guid: 595edc1f32470e443826bcb8ae30179f, type: 2}
    icon: {fileID: 21300000, guid: 6ec9400f9be18a24c836905fbbfd7ece, type: 3}
  - enumValue: {fileID: 11400000, guid: 960571eeace4bc647b5da206d7fd1a15, type: 2}
    icon: {fileID: 21300000, guid: 2e83e75a2b289a64a90ccfae898e5641, type: 3}
  - enumValue: {fileID: 11400000, guid: fd5f54b1edd5e1040a02355f4b8ea49b, type: 2}
    icon: {fileID: 21300000, guid: 2e83e75a2b289a64a90ccfae898e5641, type: 3}
  - enumValue: {fileID: 11400000, guid: 0742f6e9f52b25341808f6949aca8383, type: 2}
    icon: {fileID: 21300000, guid: 2e83e75a2b289a64a90ccfae898e5641, type: 3}
  - enumValue: {fileID: 11400000, guid: 7c42e9599b4c72642b4bf6233f18a9f9, type: 2}
    icon: {fileID: 21300000, guid: 2e83e75a2b289a64a90ccfae898e5641, type: 3}
  - enumValue: {fileID: 11400000, guid: 317f193ca7599674ca16930020106552, type: 2}
    icon: {fileID: 21300000, guid: 2e83e75a2b289a64a90ccfae898e5641, type: 3}
  - enumValue: {fileID: 11400000, guid: 62a9fcc0485c4484d888f274d07b3643, type: 2}
    icon: {fileID: 21300000, guid: f518131ad94726640881cedd7b287c9c, type: 3}
  - enumValue: {fileID: 11400000, guid: 82db7477fd40997469ce9a191c859e0f, type: 2}
    icon: {fileID: 21300000, guid: f518131ad94726640881cedd7b287c9c, type: 3}
  - enumValue: {fileID: 11400000, guid: c642528bc53e50145a396540a3004079, type: 2}
    icon: {fileID: 21300000, guid: f518131ad94726640881cedd7b287c9c, type: 3}
  - enumValue: {fileID: 11400000, guid: b6ee33f85e4fe6a48b901fa9fa3b04c9, type: 2}
    icon: {fileID: 21300000, guid: f518131ad94726640881cedd7b287c9c, type: 3}
  - enumValue: {fileID: 11400000, guid: ebcd80e875540d5479e611d4fb12b5be, type: 2}
    icon: {fileID: 21300000, guid: f518131ad94726640881cedd7b287c9c, type: 3}
