%YAML 1.1
%TAG !u! tag:unity3d.com,2011:
--- !u!95 &4522792537727565699
Animator:
  serializedVersion: 3
  m_ObjectHideFlags: 0
  m_CorrespondingSourceObject: {fileID: 0}
  m_PrefabInstance: {fileID: 0}
  m_PrefabAsset: {fileID: 0}
  m_GameObject: {fileID: 800155816008201714}
  m_Enabled: 1
  m_Avatar: {fileID: 0}
  m_Controller: {fileID: 9100000, guid: 3962fe1a6691aa143922aebbd654ff8f, type: 2}
  m_CullingMode: 0
  m_UpdateMode: 0
  m_ApplyRootMotion: 0
  m_LinearVelocityBlending: 0
  m_WarningMessage: 
  m_HasTransformHierarchy: 1
  m_AllowConstantClipSamplingOptimization: 1
  m_KeepAnimatorControllerStateOnDisable: 0
--- !u!1 &566275600253179940
GameObject:
  m_ObjectHideFlags: 0
  m_CorrespondingSourceObject: {fileID: 0}
  m_PrefabInstance: {fileID: 0}
  m_PrefabAsset: {fileID: 0}
  serializedVersion: 6
  m_Component:
  - component: {fileID: 566275600253179943}
  m_Layer: 0
  m_Name: zombie_base
  m_TagString: Untagged
  m_Icon: {fileID: 0}
  m_NavMeshLayer: 0
  m_StaticEditorFlags: 0
  m_IsActive: 1
--- !u!4 &566275600253179943
Transform:
  m_ObjectHideFlags: 0
  m_CorrespondingSourceObject: {fileID: 0}
  m_PrefabInstance: {fileID: 0}
  m_PrefabAsset: {fileID: 0}
  m_GameObject: {fileID: 566275600253179940}
  m_LocalRotation: {x: 0, y: 0, z: 0, w: 1}
  m_LocalPosition: {x: 0, y: 0, z: 0}
  m_LocalScale: {x: 1, y: 1, z: 1}
  m_Children:
  - {fileID: 22915837477384008}
  m_Father: {fileID: 0}
  m_RootOrder: 0
  m_LocalEulerAnglesHint: {x: 0, y: 0, z: 0}
--- !u!1001 &566275599449753763
PrefabInstance:
  m_ObjectHideFlags: 0
  serializedVersion: 2
  m_Modification:
    m_TransformParent: {fileID: 566275600253179943}
    m_Modifications:
    - target: {fileID: -8679921383154817045, guid: 65bdbbbdef7bc264fb0b616e4d1c7ca1, type: 3}
      propertyPath: m_RootOrder
      value: 0
      objectReference: {fileID: 0}
    - target: {fileID: -8679921383154817045, guid: 65bdbbbdef7bc264fb0b616e4d1c7ca1, type: 3}
      propertyPath: m_LocalScale.x
      value: 0.5
      objectReference: {fileID: 0}
    - target: {fileID: -8679921383154817045, guid: 65bdbbbdef7bc264fb0b616e4d1c7ca1, type: 3}
      propertyPath: m_LocalScale.y
      value: 0.5
      objectReference: {fileID: 0}
    - target: {fileID: -8679921383154817045, guid: 65bdbbbdef7bc264fb0b616e4d1c7ca1, type: 3}
      propertyPath: m_LocalScale.z
      value: 0.5
      objectReference: {fileID: 0}
    - target: {fileID: -8679921383154817045, guid: 65bdbbbdef7bc264fb0b616e4d1c7ca1, type: 3}
      propertyPath: m_LocalPosition.x
      value: 0
      objectReference: {fileID: 0}
    - target: {fileID: -8679921383154817045, guid: 65bdbbbdef7bc264fb0b616e4d1c7ca1, type: 3}
      propertyPath: m_LocalPosition.y
      value: 0
      objectReference: {fileID: 0}
    - target: {fileID: -8679921383154817045, guid: 65bdbbbdef7bc264fb0b616e4d1c7ca1, type: 3}
      propertyPath: m_LocalPosition.z
      value: 0
      objectReference: {fileID: 0}
    - target: {fileID: -8679921383154817045, guid: 65bdbbbdef7bc264fb0b616e4d1c7ca1, type: 3}
      propertyPath: m_LocalRotation.w
      value: 1
      objectReference: {fileID: 0}
    - target: {fileID: -8679921383154817045, guid: 65bdbbbdef7bc264fb0b616e4d1c7ca1, type: 3}
      propertyPath: m_LocalRotation.x
      value: 0
      objectReference: {fileID: 0}
    - target: {fileID: -8679921383154817045, guid: 65bdbbbdef7bc264fb0b616e4d1c7ca1, type: 3}
      propertyPath: m_LocalRotation.y
      value: 0
      objectReference: {fileID: 0}
    - target: {fileID: -8679921383154817045, guid: 65bdbbbdef7bc264fb0b616e4d1c7ca1, type: 3}
      propertyPath: m_LocalRotation.z
      value: 0
      objectReference: {fileID: 0}
    - target: {fileID: -8679921383154817045, guid: 65bdbbbdef7bc264fb0b616e4d1c7ca1, type: 3}
      propertyPath: m_LocalEulerAnglesHint.x
      value: 0
      objectReference: {fileID: 0}
    - target: {fileID: -8679921383154817045, guid: 65bdbbbdef7bc264fb0b616e4d1c7ca1, type: 3}
      propertyPath: m_LocalEulerAnglesHint.y
      value: 0
      objectReference: {fileID: 0}
    - target: {fileID: -8679921383154817045, guid: 65bdbbbdef7bc264fb0b616e4d1c7ca1, type: 3}
      propertyPath: m_LocalEulerAnglesHint.z
      value: 0
      objectReference: {fileID: 0}
    - target: {fileID: 919132149155446097, guid: 65bdbbbdef7bc264fb0b616e4d1c7ca1, type: 3}
      propertyPath: m_Name
      value: zombie_lowpoly
      objectReference: {fileID: 0}
    m_RemovedComponents: []
  m_SourcePrefab: {fileID: 100100000, guid: 65bdbbbdef7bc264fb0b616e4d1c7ca1, type: 3}
--- !u!1 &800155816008201714 stripped
GameObject:
  m_CorrespondingSourceObject: {fileID: 919132149155446097, guid: 65bdbbbdef7bc264fb0b616e4d1c7ca1, type: 3}
  m_PrefabInstance: {fileID: 566275599449753763}
  m_PrefabAsset: {fileID: 0}
--- !u!4 &22915837477384008 stripped
Transform:
  m_CorrespondingSourceObject: {fileID: -8679921383154817045, guid: 65bdbbbdef7bc264fb0b616e4d1c7ca1, type: 3}
  m_PrefabInstance: {fileID: 566275599449753763}
  m_PrefabAsset: {fileID: 0}
